{
  "project_info": {
    "project_number": "1073544989061",
    "firebase_url": "https://simpleclient-60868.firebaseio.com",
    "project_id": "simpleclient-60868",
    "storage_bucket": "simpleclient-60868.appspot.com"
  },
  "client": [
    {
      "client_info": {
        "mobilesdk_app_id": "1:1073544989061:android:be94e1fc835dbc1b5f9cec",
        "android_client_info": {
          "package_name": "com.basar.admin"
        }
      },
      "oauth_client": [
        {
          "client_id": "1073544989061-bm01etmevhjo9717o1u0jg1h4jurh2hd.apps.googleusercontent.com",
          "client_type": 3
        }
      ],
      "api_key": [
        {
          "current_key": "AIzaSyBoPtG0_N1n8ULPo0r52Yp-qEDo6syL86o"
        }
      ],
      "services": {
        "appinvite_service": {
          "other_platform_oauth_client": [
            {
              "client_id": "1073544989061-bm01etmevhjo9717o1u0jg1h4jurh2hd.apps.googleusercontent.com",
              "client_type": 3
            }
          ]
        }
      }
    },
    {
      "client_info": {
        "mobilesdk_app_id": "1:1073544989061:android:1291b7059d9cd2b85f9cec",
        "android_client_info": {
          "package_name": "com.basar.client"
        }
      },
      "oauth_client": [
        {
          "client_id": "1073544989061-bm01etmevhjo9717o1u0jg1h4jurh2hd.apps.googleusercontent.com",
          "client_type": 3
        }
      ],
      "api_key": [
        {
          "current_key": "AIzaSyBoPtG0_N1n8ULPo0r52Yp-qEDo6syL86o"
        }
      ],
      "services": {
        "appinvite_service": {
          "other_platform_oauth_client": [
            {
              "client_id": "1073544989061-bm01etmevhjo9717o1u0jg1h4jurh2hd.apps.googleusercontent.com",
              "client_type": 3
            }
          ]
        }
      }
    },
    {
      "client_info": {
        "mobilesdk_app_id": "1:1073544989061:android:ff175a95f8140c945f9cec",
        "android_client_info": {
          "package_name": "com.basar.companyclient"
        }
      },
      "oauth_client": [
        {
          "client_id": "1073544989061-bm01etmevhjo9717o1u0jg1h4jurh2hd.apps.googleusercontent.com",
          "client_type": 3
        }
      ],
      "api_key": [
        {
          "current_key": "AIzaSyBoPtG0_N1n8ULPo0r52Yp-qEDo6syL86o"
        }
      ],
      "services": {
        "appinvite_service": {
          "other_platform_oauth_client": [
            {
              "client_id": "1073544989061-bm01etmevhjo9717o1u0jg1h4jurh2hd.apps.googleusercontent.com",
              "client_type": 3
            }
          ]
        }
      }
    },
    {
      "client_info": {
        "mobilesdk_app_id": "1:1073544989061:android:2559e2c9a24f1b4f5f9cec",
        "android_client_info": {
          "package_name": "com.basar.simpleclient"
        }
      },
      "oauth_client": [
        {
          "client_id": "1073544989061-bm01etmevhjo9717o1u0jg1h4jurh2hd.apps.googleusercontent.com",
          "client_type": 3
        }
      ],
      "api_key": [
        {
          "current_key": "AIzaSyBoPtG0_N1n8ULPo0r52Yp-qEDo6syL86o"
        }
      ],
      "services": {
        "appinvite_service": {
          "other_platform_oauth_client": [
            {
              "client_id": "1073544989061-bm01etmevhjo9717o1u0jg1h4jurh2hd.apps.googleusercontent.com",
              "client_type": 3
            }
          ]
        }
      }
    }
  ],
  "configuration_version": "1"
}